21 ноя 2015 13:25:37,959 From method - doGet ERROR - jrmekmreg
21 ноя 2015 13:25:41,519 From method - doGet ERROR - jrmekmreg
21 ноя 2015 13:25:45,004 From method - doGet INFO  - fuck
21 ноя 2015 14:22:21,604 From method - doGet INFO  - doGet StartServlet
21 ноя 2015 14:22:23,668 From method - doGet INFO  - doGet StartServlet
21 ноя 2015 14:22:25,739 From method - doGet INFO  - doGet ShowListServlet
21 ноя 2015 14:22:25,752 From method - createStudentBuilder INFO  - Chosen DOM parser
21 ноя 2015 14:24:30,374 From method - doGet INFO  - doGet StartServlet
21 ноя 2015 14:24:32,002 From method - doGet INFO  - doGet StartServlet
21 ноя 2015 14:24:39,178 From method - doGet INFO  - doGet ShowListServlet
21 ноя 2015 14:24:39,189 From method - createStudentBuilder INFO  - Chosen DOM parser
21 ноя 2015 14:25:40,637 From method - doGet INFO  - doGet StartServlet
21 ноя 2015 14:25:42,659 From method - doGet INFO  - doGet StartServlet
21 ноя 2015 14:25:44,902 From method - doGet INFO  - doGet ShowListServlet
21 ноя 2015 14:25:44,914 From method - createStudentBuilder INFO  - Chosen DOM parser
21 ноя 2015 14:25:47,547 From method - doGet INFO  - doGet ShowListServlet
21 ноя 2015 14:25:49,623 From method - doGet INFO  - doGet ShowListServlet
21 ноя 2015 14:25:51,676 From method - doGet INFO  - doGet ShowListServlet
21 ноя 2015 14:25:53,716 From method - doGet INFO  - doGet ShowListServlet
21 ноя 2015 14:25:55,402 From method - doGet INFO  - doGet ShowListServlet
21 ноя 2015 14:25:56,699 From method - doGet INFO  - doGet ShowListServlet
21 ноя 2015 14:26:54,100 From method - doGet INFO  - doGet StartServlet
21 ноя 2015 14:26:55,620 From method - doGet INFO  - doGet StartServlet
21 ноя 2015 14:26:58,260 From method - doGet INFO  - doGet ShowListServlet
21 ноя 2015 14:26:58,274 From method - createStudentBuilder INFO  - Chosen SAX parser
21 ноя 2015 14:27:01,564 From method - doGet INFO  - doGet ShowListServlet
21 ноя 2015 14:27:03,881 From method - doGet INFO  - doGet ShowListServlet
21 ноя 2015 14:27:05,582 From method - doGet INFO  - doGet ShowListServlet
21 ноя 2015 14:27:07,576 From method - doGet INFO  - doGet ShowListServlet
21 ноя 2015 14:27:09,018 From method - doGet INFO  - doGet ShowListServlet
21 ноя 2015 14:27:09,944 From method - doGet INFO  - doGet ShowListServlet
21 ноя 2015 14:34:59,783 From method - doGet INFO  - doGet StartServlet
21 ноя 2015 14:35:01,365 From method - doGet INFO  - doGet StartServlet
21 ноя 2015 14:35:03,596 From method - doGet INFO  - doGet ShowListServlet
21 ноя 2015 14:35:03,607 From method - createStudentBuilder INFO  - Chosen DOM parser
21 ноя 2015 14:35:06,648 From method - doGet INFO  - doGet ShowListServlet
21 ноя 2015 14:35:08,489 From method - doGet INFO  - doGet ShowListServlet
21 ноя 2015 14:47:05,574 From method - doGet INFO  - doGet StartServlet
21 ноя 2015 14:47:12,081 From method - doGet INFO  - doGet StartServlet
21 ноя 2015 14:49:44,601 From method - doGet INFO  - doGet StartServlet
21 ноя 2015 14:49:48,501 From method - doGet INFO  - doGet StartServlet
21 ноя 2015 14:49:50,166 From method - doGet INFO  - doGet ShowListServlet
21 ноя 2015 14:49:50,177 From method - createStudentBuilder INFO  - Chosen SAX parser
21 ноя 2015 14:49:52,628 From method - doGet INFO  - doGet ShowListServlet
